Demo
…
ca <- get_acs(geography = "county", 
              variables = c(medincome = "B19013_001"), 
              state = "CA", 
              year = 2018)

## Getting data from the 2014-2018 5-year ACS

ca

## # A tibble: 58 x 5
##    GEOID NAME                            variable  estimate   moe
##    <chr> <chr>                           <chr>        <dbl> <dbl>
##  1 06001 Alameda County, California      medincome    92574  1023
##  2 06003 Alpine County, California       medincome    64688 12933
##  3 06005 Amador County, California       medincome    61198  3241
##  4 06007 Butte County, California        medincome    48443  1477
##  5 06009 Calaveras County, California    medincome    58151  3310
##  6 06011 Colusa County, California       medincome    56704  4501
##  7 06013 Contra Costa County, California medincome    93712   926
##  8 06015 Del Norte County, California    medincome    45258  5035
##  9 06017 El Dorado County, California    medincome    80582  2117
## 10 06019 Fresno County, California       medincome    51261   808
## # ... with 48 more rows
